…
``` r
colnames(all_wts) <- colnames(log_ret_xts)
portfolio_values <- tk_tbl(cbind(all_wts, portfolio_values))
```

    ## Warning in tk_tbl.data.frame(cbind(all_wts, portfolio_values)): Warning: No
    ## index to preserve. Object otherwise converted to tibble successfully.

``` r
portfolio_values
```

    ## # A tibble: 3,000 x 8
    ##       AMD   AMZN   MSFT   NVDA    PEP Return  Risk SharpeRatio
    ##     <dbl>  <dbl>  <dbl>  <dbl>  <dbl>  <dbl> <dbl>       <dbl>
    ##  1 0.0987 0.263  0.254  0.0935 0.292   0.342 0.195        1.54
    ##  2 0.0311 0.231  0.324  0.317  0.0964  0.425 0.241        1.59
    ##  3 0.240  0.211  0.0982 0.0397 0.411   0.351 0.220        1.41
    ##  4 0.0285 0.0628 0.263  0.237  0.408   0.309 0.186        1.44
    ##  5 0.250  0.0862 0.0822 0.255  0.327   0.427 0.261        1.48
    ##  6 0.163  0.296  0.0622 0.220  0.259   0.421 0.236        1.61
    ##  7 0.0698 0.410  0.192  0.196  0.133   0.417 0.231        1.63
    ##  8 0.325  0.112  0.277  0.182  0.104   0.491 0.298        1.51
    ##  9 0.199  0.278  0.389  0.0358 0.0979  0.411 0.240        1.54
    ## 10 0.289  0.0667 0.105  0.228  0.312   0.435 0.273        1.45
    ## # ... with 2,990 more rows
…
``` r
#Converting risk free rate into percentage and change column name
TNX <- TNX %>%
  mutate(rf = ..Adjusted/100)
TNX <- TNX %>%
  subset(select = -c(..Adjusted))
#Divide the risk free rate by 12 
TNX$rf <- TNX$rf/12
TNX
```

    ## # A tibble: 32 x 1
    ##          rf
    ##       <dbl>
    ##  1 0.00127 
    ##  2 0.000939
    ##  3 0.000582
    ##  4 0.000518
    ##  5 0.00054 
    ##  6 0.000544
    ##  7 0.000447
    ##  8 0.000578
    ##  9 0.000564
    ## 10 0.000717
    ## # ... with 22 more rows
…
``` r
stocks.prices.c <-  tq_get(symbols,get  = "stock.prices",from = "2020-01-01",to = "2022-8-31") %>%
  group_by(symbol)

multpl_stock_monthly_returns.c <- stocks.prices.c %>%
  group_by(symbol) %>%
  tq_transmute(select = adjusted,
               mutate_fun = periodReturn,
               period = 'monthly',
               col_rename = 'returns')
multpl_stock_monthly_returns.c
```

    ## # A tibble: 160 x 3
    ## # Groups:   symbol [5]
    ##    symbol date       returns
    ##    <chr>  <date>       <dbl>
    ##  1 AMD    2020-01-31 -0.0428
    ##  2 AMD    2020-02-28 -0.0323
    ##  3 AMD    2020-03-31  0     
    ##  4 AMD    2020-04-30  0.152 
    ##  5 AMD    2020-05-29  0.0269
    ##  6 AMD    2020-06-30 -0.0221
    ##  7 AMD    2020-07-31  0.472 
    ##  8 AMD    2020-08-31  0.173 
    ##  9 AMD    2020-09-30 -0.0972
    ## 10 AMD    2020-10-30 -0.0817
    ## # ... with 150 more rows
…
