…
## Warning in tk_tbl.data.frame(as.data.frame(data), preserve_index,
## rename_index, : Warning: No index to preserve. Object otherwise converted to
## tibble successfully.

colnames(all_wts) <- colnames(log_ret_xts)
portfolio_values <- tk_tbl(cbind(all_wts, portfolio_values))

## Warning in tk_tbl.data.frame(cbind(all_wts, portfolio_values)): Warning: No
## index to preserve. Object otherwise converted to tibble successfully.

portfolio_values

## # A tibble: 3,000 x 8
##       AMD   AMZN   MSFT     NVDA    PEP Return  Risk SharpeRatio
##     <dbl>  <dbl>  <dbl>    <dbl>  <dbl>  <dbl> <dbl>       <dbl>
##  1 0.244  0.225  0.244  0.240    0.0458  0.505 0.287        1.62
##  2 0.389  0.168  0.156  0.00129  0.286   0.423 0.288        1.32
##  3 0.192  0.167  0.171  0.0479   0.422   0.326 0.200        1.42
##  4 0.131  0.346  0.0603 0.174    0.290   0.392 0.219        1.60
##  5 0.272  0.0859 0.0586 0.167    0.417   0.387 0.247        1.40
##  6 0.350  0.186  0.0327 0.170    0.261   0.471 0.296        1.45
##  7 0.0600 0.0457 0.493  0.228    0.173   0.367 0.218        1.50
##  8 0.0742 0.300  0.0210 0.309    0.296   0.404 0.227        1.60
##  9 0.243  0.328  0.0579 0.000432 0.371   0.363 0.226        1.42
## 10 0.128  0.363  0.181  0.161    0.165   0.417 0.231        1.63
## # ... with 2,990 more rows
…
#Converting risk free rate into percentage and change column name
TNX <- TNX %>%
  mutate(rf = ..Adjusted/100)
TNX <- TNX %>%
  subset(select = -c(..Adjusted))
#Divide the risk free rate by 12 
TNX$rf <- TNX$rf/12
TNX

## # A tibble: 32 x 1
##          rf
##       <dbl>
##  1 0.00127 
##  2 0.000939
##  3 0.000582
##  4 0.000518
##  5 0.00054 
##  6 0.000544
##  7 0.000447
##  8 0.000578
##  9 0.000564
## 10 0.000717
## # ... with 22 more rows
…
By utilizing Box constraints, we found out that the weights of the assets are w = (0.1,0.1,0.3,0.1,0.4). Now we are going to compare the performance of the portfolio utilizing the new weights

stocks.prices.c <-  tq_get(symbols,get  = "stock.prices",from = "2020-01-01",to = "2022-8-31") %>%
  group_by(symbol)

multpl_stock_monthly_returns.c <- stocks.prices.c %>%
  group_by(symbol) %>%
  tq_transmute(select = adjusted,
               mutate_fun = periodReturn,
               period = 'monthly',
               col_rename = 'returns')
multpl_stock_monthly_returns.c

## # A tibble: 160 x 3
## # Groups:   symbol [5]
##    symbol date       returns
##    <chr>  <date>       <dbl>
##  1 AMD    2020-01-31 -0.0428
##  2 AMD    2020-02-28 -0.0323
##  3 AMD    2020-03-31  0     
##  4 AMD    2020-04-30  0.152 
##  5 AMD    2020-05-29  0.0269
##  6 AMD    2020-06-30 -0.0221
##  7 AMD    2020-07-31  0.472 
##  8 AMD    2020-08-31  0.173 
##  9 AMD    2020-09-30 -0.0972
## 10 AMD    2020-10-30 -0.0817
## # ... with 150 more rows
…
