…
## Warning in tk_tbl.data.frame(as.data.frame(data), preserve_index,
## rename_index, : Warning: No index to preserve. Object otherwise converted to
## tibble successfully.

colnames(all_wts) <- colnames(log_ret_xts)
portfolio_values <- tk_tbl(cbind(all_wts, portfolio_values))

## Warning in tk_tbl.data.frame(cbind(all_wts, portfolio_values)): Warning: No
## index to preserve. Object otherwise converted to tibble successfully.

portfolio_values

## # A tibble: 3,000 x 8
##       AMD   AMZN   MSFT   NVDA    PEP Return  Risk SharpeRatio
##     <dbl>  <dbl>  <dbl>  <dbl>  <dbl>  <dbl> <dbl>       <dbl>
##  1 0.203  0.318  0.0155 0.205  0.259   0.436 0.248        1.59
##  2 0.0353 0.277  0.0492 0.339  0.299   0.394 0.224        1.58
##  3 0.192  0.289  0.0831 0.159  0.277   0.408 0.233        1.57
##  4 0.136  0.0951 0.290  0.110  0.369   0.325 0.193        1.47
##  5 0.158  0.284  0.141  0.0379 0.379   0.333 0.197        1.48
##  6 0.102  0.0837 0.0231 0.734  0.0568  0.592 0.360        1.53
##  7 0.133  0.271  0.0868 0.221  0.287   0.399 0.224        1.60
##  8 0.132  0.152  0.169  0.185  0.362   0.355 0.205        1.53
##  9 0.0822 0.195  0.208  0.216  0.299   0.364 0.205        1.57
## 10 0.108  0.122  0.249  0.225  0.297   0.368 0.211        1.55
## # ... with 2,990 more rows
…
#Converting risk free rate into percentage and change column name
TNX <- TNX %>%
  mutate(rf = ..Adjusted/100)
TNX <- TNX %>%
  subset(select = -c(..Adjusted))
#Divide the risk free rate by 12 
TNX$rf <- TNX$rf/12
TNX

## # A tibble: 32 x 1
##          rf
##       <dbl>
##  1 0.00127 
##  2 0.000939
##  3 0.000582
##  4 0.000518
##  5 0.00054 
##  6 0.000544
##  7 0.000447
##  8 0.000578
##  9 0.000564
## 10 0.000717
## # ... with 22 more rows
…
By utilizing Box constraints, we found out that the weights of the assets are w = (0.1,0.1,0.3,0.1,0.4). Now we are going to compare the performance of the portfolio utilizing the new weights

stocks.prices.c <-  tq_get(symbols,get  = "stock.prices",from = "2020-01-01",to = "2022-8-31") %>%
  group_by(symbol)

multpl_stock_monthly_returns.c <- stocks.prices.c %>%
  group_by(symbol) %>%
  tq_transmute(select = adjusted,
               mutate_fun = periodReturn,
               period = 'monthly',
               col_rename = 'returns')
multpl_stock_monthly_returns.c

## # A tibble: 160 x 3
## # Groups:   symbol [5]
##    symbol date       returns
##    <chr>  <date>       <dbl>
##  1 AMD    2020-01-31 -0.0428
##  2 AMD    2020-02-28 -0.0323
##  3 AMD    2020-03-31  0     
##  4 AMD    2020-04-30  0.152 
##  5 AMD    2020-05-29  0.0269
##  6 AMD    2020-06-30 -0.0221
##  7 AMD    2020-07-31  0.472 
##  8 AMD    2020-08-31  0.173 
##  9 AMD    2020-09-30 -0.0972
## 10 AMD    2020-10-30 -0.0817
## # ... with 150 more rows
…
